…
---

    Code
      augment(M_bioChem)
    Output
      # A tibble: 915 x 11
           art fem   mar    kid5   phd  ment .fitted .resid .std.resid    .hat .cooksd
         <int> <fct> <fct> <dbl> <dbl> <int>   <dbl>  <dbl>      <dbl>   <dbl>   <dbl>
       1     0 Men   Marr~     0  2.52     7  0.682   -1.83      -1.83 0.00481 1.22e-3
       2     0 Women Sing~     0  2.05     6  0.265   -1.49      -1.49 0.00457 7.27e-4
       3     0 Women Sing~     0  3.75     6  0.282   -1.50      -1.50 0.00368 5.95e-4
       4     0 Men   Marr~     1  1.18     3  0.380   -1.57      -1.58 0.00572 1.03e-3
       5     0 Women Sing~     0  3.75    26  0.776   -1.91      -1.92 0.00788 2.25e-3
       6     0 Women Marr~     2  3.59     2 -0.0386  -1.29      -1.29 0.00613 7.17e-4
       7     0 Women Sing~     0  3.19     3  0.202   -1.44      -1.44 0.00330 4.90e-4
       8     0 Men   Marr~     2  2.96     4  0.233   -1.46      -1.47 0.00526 8.10e-4
       9     0 Men   Sing~     0  4.62     6  0.519   -1.68      -1.69 0.00721 1.52e-3
      10     0 Women Marr~     0  1.25     0  0.267   -1.49      -1.49 0.00598 9.57e-4
      # ... with 905 more rows

---

    Code
      augment(M_bioChem, se_fit = TRUE)
    Output
      # A tibble: 915 x 12
           art fem   mar    kid5   phd  ment .fitted .se.fit .resid .std.resid    .hat
         <int> <fct> <fct> <dbl> <dbl> <int>   <dbl>   <dbl>  <dbl>      <dbl>   <dbl>
       1     0 Men   Marr~     0  2.52     7  0.682   0.0565  -1.83      -1.83 0.00481
       2     0 Women Sing~     0  2.05     6  0.265   0.0693  -1.49      -1.49 0.00457
       3     0 Women Sing~     0  3.75     6  0.282   0.0619  -1.50      -1.50 0.00368
       4     0 Men   Marr~     1  1.18     3  0.380   0.0733  -1.57      -1.58 0.00572
       5     0 Women Sing~     0  3.75    26  0.776   0.0681  -1.91      -1.92 0.00788
       6     0 Women Marr~     2  3.59     2 -0.0386  0.0944  -1.29      -1.29 0.00613
       7     0 Women Sing~     0  3.19     3  0.202   0.0610  -1.44      -1.44 0.00330
       8     0 Men   Marr~     2  2.96     4  0.233   0.0760  -1.46      -1.47 0.00526
       9     0 Men   Sing~     0  4.62     6  0.519   0.0764  -1.68      -1.69 0.00721
      10     0 Women Marr~     0  1.25     0  0.267   0.0795  -1.49      -1.49 0.00598
      # ... with 905 more rows, and 1 more variable: .cooksd <dbl>

---

    Code
      augment(M_bioChem, type.predict = "response")
    Output
      # A tibble: 915 x 11
           art fem   mar    kid5   phd  ment .fitted .resid .std.resid    .hat .cooksd
         <int> <fct> <fct> <dbl> <dbl> <int>   <dbl>  <dbl>      <dbl>   <dbl>   <dbl>
       1     0 Men   Marr~     0  2.52     7   1.98   -1.83      -1.83 0.00481 1.22e-3
       2     0 Women Sing~     0  2.05     6   1.30   -1.49      -1.49 0.00457 7.27e-4
       3     0 Women Sing~     0  3.75     6   1.33   -1.50      -1.50 0.00368 5.95e-4
       4     0 Men   Marr~     1  1.18     3   1.46   -1.57      -1.58 0.00572 1.03e-3
       5     0 Women Sing~     0  3.75    26   2.17   -1.91      -1.92 0.00788 2.25e-3
       6     0 Women Marr~     2  3.59     2   0.962  -1.29      -1.29 0.00613 7.17e-4
       7     0 Women Sing~     0  3.19     3   1.22   -1.44      -1.44 0.00330 4.90e-4
       8     0 Men   Marr~     2  2.96     4   1.26   -1.46      -1.47 0.00526 8.10e-4
       9     0 Men   Sing~     0  4.62     6   1.68   -1.68      -1.69 0.00721 1.52e-3
      10     0 Women Marr~     0  1.25     0   1.31   -1.49      -1.49 0.00598 9.57e-4
      # ... with 905 more rows

---

    Code
      augment(M_bioChem, type.predict = "response", se_fit = TRUE)
    Output
      # A tibble: 915 x 12
           art fem   mar    kid5   phd  ment .fitted .se.fit .resid .std.resid    .hat
         <int> <fct> <fct> <dbl> <dbl> <int>   <dbl>   <dbl>  <dbl>      <dbl>   <dbl>
       1     0 Men   Marr~     0  2.52     7   1.98   0.112   -1.83      -1.83 0.00481
       2     0 Women Sing~     0  2.05     6   1.30   0.0904  -1.49      -1.49 0.00457
       3     0 Women Sing~     0  3.75     6   1.33   0.0821  -1.50      -1.50 0.00368
       4     0 Men   Marr~     1  1.18     3   1.46   0.107   -1.57      -1.58 0.00572
       5     0 Women Sing~     0  3.75    26   2.17   0.148   -1.91      -1.92 0.00788
       6     0 Women Marr~     2  3.59     2   0.962  0.0908  -1.29      -1.29 0.00613
       7     0 Women Sing~     0  3.19     3   1.22   0.0747  -1.44      -1.44 0.00330
       8     0 Men   Marr~     2  2.96     4   1.26   0.0959  -1.46      -1.47 0.00526
       9     0 Men   Sing~     0  4.62     6   1.68   0.128   -1.68      -1.69 0.00721
      10     0 Women Marr~     0  1.25     0   1.31   0.104   -1.49      -1.49 0.00598
      # ... with 905 more rows, and 1 more variable: .cooksd <dbl>
…
    Code
      augment(M_bioChem, newdata = newdataframe, type.predict = "response", se_fit = TRUE)
    Output
      # A tibble: 1 x 7
        fem   mar      kid5   phd  ment .fitted .se.fit[,1]
        <chr> <chr>   <dbl> <dbl> <dbl>   <dbl>       <dbl>
      1 Women Married     2     3     8    1.11      0.0992

---

    Code
      augment(M_bioChem, type.residuals = "pearson")
    Output
      # A tibble: 915 x 11
           art fem   mar    kid5   phd  ment .fitted .resid .std.resid    .hat .cooksd
         <int> <fct> <fct> <dbl> <dbl> <int>   <dbl>  <dbl>      <dbl>   <dbl>   <dbl>
       1     0 Men   Marr~     0  2.52     7  0.682  -1.23      -1.23  0.00481 1.22e-3
       2     0 Women Sing~     0  2.05     6  0.265  -0.973     -0.975 0.00457 7.27e-4
       3     0 Women Sing~     0  3.75     6  0.282  -0.982     -0.983 0.00368 5.95e-4
       4     0 Men   Marr~     1  1.18     3  0.380  -1.03      -1.04  0.00572 1.03e-3
       5     0 Women Sing~     0  3.75    26  0.776  -1.30      -1.30  0.00788 2.25e-3
       6     0 Women Marr~     2  3.59     2 -0.0386 -0.833     -0.835 0.00613 7.17e-4
       7     0 Women Sing~     0  3.19     3  0.202  -0.941     -0.943 0.00330 4.90e-4
       8     0 Men   Marr~     2  2.96     4  0.233  -0.957     -0.959 0.00526 8.10e-4
       9     0 Men   Sing~     0  4.62     6  0.519  -1.12      -1.12  0.00721 1.52e-3
      10     0 Women Marr~     0  1.25     0  0.267  -0.974     -0.977 0.00598 9.57e-4
      # ... with 905 more rows
